4 4
X 14 X 16 11 13 2 X X X X 9 10 12 X X
2 X 11 15 X 14 16 3 12 X X X X X 7 X
X 7 10 X X X X X X 3 X 11 6 X 2 13
12 X 8 X X X X X X X X X X X X X
15 X 6 5 4 10 X X 2 X X X X 8 1 11
11 12 7 1 9 X X 8 5 X 14 X X X X X
3 4 2 14 X 1 11 16 9 12 10 8 7 X X X
8 X 16 X X X X 6 X X X 7 2 X X X
X 3 13 X 14 X X 15 X 8 11 X X X 12 10
X 16 X X 12 X 1 X 7 4 X 14 X X X 6
X X X X X X 6 X X X X 1 X X 3 X
4 11 X 6 2 X X X 10 X 15 X X X 14 16
16 X X 8 10 X 15 11 13 14 7 X X X 5 X
13 5 1 11 X 9 4 X X X X 12 14 X 6 7
7 X X 3 13 6 X 12 X X 9 5 X X X 15
6 X 4 X 1 5 7 X 3 X X 16 13 X 9 X
